FinalAnalysisCopy.utf8
…
## [1] "character"

km$class <- as.factor(km$class)
class(km$fact)

## Warning: Unknown or uninitialised column: `fact`.

## [1] "NULL"

x <- km %>% dplyr::select(imputed_wbcc,imputed_rbcc, class)
x

## # A tibble: 233 x 3
##    imputed_wbcc imputed_rbcc class
##           <dbl> <impute>     <fct>
##  1         7500 4.869355     ckd  
##  2         6700 3.900000     ckd  
##  3         7300 4.600000     ckd  
##  4         6900 5.000000     ckd  
##  5         9600 4.000000     ckd  
##  6        12100 3.700000     ckd  
##  7         4500 3.800000     ckd  
##  8        11000 2.600000     ckd  
##  9         9200 3.200000     ckd  
## 10         6900 3.400000     ckd  
## # ... with 223 more rows
…
x <- km %>% dplyr::select(imputed_pot,imputed_hemo, class)
x

## # A tibble: 233 x 3
##    imputed_pot imputed_hemo class
##    <impute>           <dbl> <fct>
##  1 4.74802              9.6 ckd  
##  2 2.50000             11.2 ckd  
##  3 4.74802             11.6 ckd  
##  4 4.74802             12.4 ckd  
##  5 4.74802             10.8 ckd  
##  6 3.70000              9.5 ckd  
##  7 4.20000             10.8 ckd  
##  8 6.40000              5.6 ckd  
##  9 5.20000              7.7 ckd  
## 10 3.80000              9.8 ckd  
## # ... with 223 more rows
…
x <- km %>% dplyr::select(imputed_su,imputed_rbcc, class)
x

## # A tibble: 233 x 3
##    imputed_su imputed_rbcc class
##         <dbl> <impute>     <fct>
##  1          3 4.869355     ckd  
##  2          0 3.900000     ckd  
##  3          0 4.600000     ckd  
##  4          4 5.000000     ckd  
##  5          0 4.000000     ckd  
##  6          0 3.700000     ckd  
##  7          0 3.800000     ckd  
##  8          2 2.600000     ckd  
##  9          0 3.200000     ckd  
## 10          0 3.400000     ckd  
## # ... with 223 more rows
…
x <- km %>% dplyr::select(imputed_wbcc,imputed_al, class)
x

## # A tibble: 233 x 3
##    imputed_wbcc imputed_al class
##           <dbl>      <dbl> <fct>
##  1         7500          2 ckd  
##  2         6700          4 ckd  
##  3         7300          2 ckd  
##  4         6900          2 ckd  
##  5         9600          3 ckd  
##  6        12100          2 ckd  
##  7         4500          3 ckd  
##  8        11000          3 ckd  
##  9         9200          2 ckd  
## 10         6900          4 ckd  
## # ... with 223 more rows
…
x <- km %>% dplyr::select(imputed_bp,imputed_al, class)
x

## # A tibble: 233 x 3
##    imputed_bp imputed_al class
##    <impute>        <dbl> <fct>
##  1  80.00000           2 ckd  
##  2  70.00000           4 ckd  
##  3  80.00000           2 ckd  
##  4  75.02183           2 ckd  
##  5 100.00000           3 ckd  
##  6  90.00000           2 ckd  
##  7  70.00000           3 ckd  
##  8  80.00000           3 ckd  
##  9  80.00000           2 ckd  
## 10  80.00000           4 ckd  
## # ... with 223 more rows
…
x <- km %>% dplyr::select(imputed_sod,imputed_sc, class)
x

## # A tibble: 233 x 3
##    imputed_sod imputed_sc class
##    <impute>         <dbl> <fct>
##  1 138.5297           1.8 ckd  
##  2 111.0000           3.8 ckd  
##  3 138.5297           1.4 ckd  
##  4 138.5297           1.1 ckd  
##  5 138.5297           1.9 ckd  
##  6 114.0000           7.2 ckd  
##  7 131.0000           2.7 ckd  
##  8 130.0000           4.1 ckd  
##  9 135.0000           3.9 ckd  
## 10 136.0000           7.7 ckd  
## # ... with 223 more rows
…
